digraph "pm.h"
{
  edge [fontname="Helvetica",fontsize="10",labelfontname="Helvetica",labelfontsize="10"];
  node [fontname="Helvetica",fontsize="10",shape=record];
  Node4 [label="pm.h",height=0.2,width=0.4,color="black", fillcolor="grey75", style="filled", fontcolor="black"];
  Node4 -> Node5 [dir="back",color="midnightblue",fontsize="10",style="solid"];
  Node5 [label="pm.c",height=0.2,width=0.4,color="black", fillcolor="white", style="filled",URL="$pm_8c.html",tooltip="Source file for power measurement module APIs. "];
}
